{
  "project_info": {
    "project_number": "815654578725",
    "firebase_url": "https://squadz-dream-734.firebaseio.com",
    "project_id": "squadz-dream-734",
    "storage_bucket": "squadz-dream-734.appspot.com"
  },
  "client": [
    {
      "client_info": {
        "mobilesdk_app_id": "1:815654578725:android:696e06d155f90140",
        "android_client_info": {
          "package_name": "com.andolasoft.squadz"
        }
      },
      "oauth_client": [
        {
          "client_id": "815654578725-rf9h3rb49pmvbjn0vnlmsr4inm8vde3s.apps.googleusercontent.com",
          "client_type": 1,
          "android_info": {
            "package_name": "com.andolasoft.squadz",
            "certificate_hash": "310c6f634058dc99f3ee58d0353ddc89edfad867"
          }
        },
        {
          "client_id": "815654578725-g4ujic1mlr90gicb88cdnd8fbdf8umpc.apps.googleusercontent.com",
          "client_type": 1,
          "android_info": {
            "package_name": "com.andolasoft.squadz",
            "certificate_hash": "2e0fcb75c40d3996c143eb7e07a042b4cb0b8435"
          }
        },
        {
          "client_id": "815654578725-g0h3tc1j09fsii5ukf2ge30aiid06fie.apps.googleusercontent.com",
          "client_type": 3
        }
      ],
      "api_key": [
        {
          "current_key": "AIzaSyD-MZ2IoUUYLqUlhGyIXfSSJOzFKHrEM7M"
        }
      ],
      "services": {
        "analytics_service": {
          "status": 1
        },
        "appinvite_service": {
          "status": 2,
          "other_platform_oauth_client": [
            {
              "client_id": "815654578725-g0h3tc1j09fsii5ukf2ge30aiid06fie.apps.googleusercontent.com",
              "client_type": 3
            },
            {
              "client_id": "815654578725-6crk4bhjf4nbgipnkcfi5l2m71uvr407.apps.googleusercontent.com",
              "client_type": 2,
              "ios_info": {
                "bundle_id": "com.squad.squad",
                "app_store_id": "956170418"
              }
            }
          ]
        },
        "ads_service": {
          "status": 2
        }
      }
    }
  ],
  "configuration_version": "1"
}